User
 Implement a RESTful API for a simple online bookstore using Spring and Hibernate. The API should allow users to perform CRUD operations on books, authors, and genres. Books should have a title, author, genre, price, and quantity available. Users should be able to search for books by title, author, or genre. Use Hibernate to persist data to a relational database and provide all source codes.

ChatGPT
Creating a complete Spring and Hibernate project with a RESTful API involves several steps. Below, I'll guide you through the process with some sample code snippets. Please note that this is a basic example, and you may need to adapt it to your specific requirements and project structure.

Step 1: Set up a Spring Boot Project
Create a new Spring Boot project using Spring Initializer (https://start.spring.io/) or your preferred IDE. Include dependencies for Spring Web, Spring Data JPA, and a database (e.g., H2 Database for simplicity).

Step 2: Create Entity Classes
Create the following entity classes: Book, Author, and Genre.

java
Copy code
// Book.java
@Entity
public class Book {
    @Id
    @GeneratedValue(strategy = GenerationType.IDENTITY)
    private Long id;

    private String title;
    private Double price;
    private Integer quantityAvailable;

    @ManyToOne
    private Author author;

    @ManyToOne
    private Genre genre;

    // getters and setters
}

// Author.java
@Entity
public class Author {
    @Id
    @GeneratedValue(strategy = GenerationType.IDENTITY)
    private Long id;

    private String name;

    // getters and setters
}

// Genre.java
@Entity
public class Genre {
    @Id
    @GeneratedValue(strategy = GenerationType.IDENTITY)
    private Long id;

    private String name;

    // getters and setters
}
Step 3: Create Repositories
Create repositories for each entity using Spring Data JPA.

java
Copy code
// BookRepository.java
public interface BookRepository extends JpaRepository<Book, Long> {
    List<Book> findByTitleContainingIgnoreCase(String title);

    List<Book> findByAuthorNameContainingIgnoreCase(String authorName);

    List<Book> findByGenreNameContainingIgnoreCase(String genreName);
}

// AuthorRepository.java
public interface AuthorRepository extends JpaRepository<Author, Long> {
    List<Author> findByNameContainingIgnoreCase(String name);
}

// GenreRepository.java
public interface GenreRepository extends JpaRepository<Genre, Long> {
    List<Genre> findByNameContainingIgnoreCase(String name);
}
Step 4: Create Service Classes
Create service classes that handle business logic.

java
Copy code
// BookService.java
public interface BookService {
    List<Book> getAllBooks();

    Book getBookById(Long id);

    Book saveBook(Book book);

    void deleteBook(Long id);

    List<Book> searchBooks(String keyword);
}

// BookServiceImpl.java
@Service
public class BookServiceImpl implements BookService {
    @Autowired
    private BookRepository bookRepository;

    // Implement methods from BookService interface
}
Repeat the process for AuthorService and GenreService.

Step 5: Create Controller
Create a REST controller to handle HTTP requests.

java
Copy code
// BookController.java
@RestController
@RequestMapping("/api/books")
public class BookController {
    @Autowired
    private BookService bookService;

    // Implement CRUD and search operations using BookService
}
Repeat the process for AuthorController and GenreController.

Step 6: Configure Database
Configure your application.properties or application.yml file with database properties.

properties
Copy code
# src/main/resources/application.properties
spring.datasource.url=jdbc:h2:mem:testdb
spring.datasource.driverClassName=org.h2.Driver
spring.datasource.username=sa
spring.datasource.password=password
spring.jpa.database-platform=org.hibernate.dialect.H2Dialect
Step 7: Run the Application
Run your Spring Boot application, and you should be able to access the API at http://localhost:8080/api/books, http://localhost:8080/api/authors, and http://localhost:8080/api/genres.

Remember, this is a simplified example, and in a real-world application, you may need to handle exception handling, input validation, security, and more. Additionally, you may want to use a more robust database like MySQL or PostgreSQL instead of H2 for production.

User
design application properties for postgresql database
ChatGPT
Certainly! To configure your Spring Boot application to use PostgreSQL, you'll need to update your application.properties or application.yml file with the appropriate settings. Below is an example of how you can configure your application properties for a PostgreSQL database:

properties
Copy code
# src/main/resources/application.properties

# DataSource settings
spring.datasource.url=jdbc:postgresql://localhost:5432/your_database_name
spring.datasource.username=your_username
spring.datasource.password=your_password
spring.datasource.driver-class-name=org.postgresql.Driver

# Hibernate settings
spring.jpa.database-platform=org.hibernate.dialect.PostgreSQLDialect
spring.jpa.hibernate.ddl-auto=update

# Show SQL logs
spring.jpa.show-sql=true

# Use HikariCP as the connection pool
spring.datasource.hikari.maximum-pool-size=5

# Naming strategy
spring.jpa.hibernate.naming-strategy=org.hibernate.cfg.ImprovedNamingStrategy
Make sure to replace your_database_name, your_username, and your_password with your actual PostgreSQL database name, username, and password.

In the spring.datasource.url, localhost:5432 is the default address for a local PostgreSQL server. Adjust the URL accordingly if your PostgreSQL server is hosted elsewhere.

This configuration assumes that you have the PostgreSQL JDBC driver in your classpath. If not, you can include it as a dependency in your pom.xml file if you are using Maven or your build tool's equivalent.

xml
Copy code
<!-- Add this to your pom.xml if you are using Maven -->
<dependencies>
    <!-- ... other dependencies ... -->
    <dependency>
        <groupId>org.postgresql</groupId>
        <artifactId>postgresql</artifactId>
        <version>your_postgresql_version</version>
    </dependency>
</dependencies>
Replace your_postgresql_version with the version of the PostgreSQL JDBC driver you want to use.

Remember to restart your Spring Boot application after making these changes for them to take effect.

User
implement logic of service classes
ChatGPT
Certainly! Below, I'll provide you with the basic implementation logic for the service classes. This includes BookService, AuthorService, and GenreService.

BookService Implementation:
java
Copy code
// BookService.java
public interface BookService {
    List<Book> getAllBooks();

    Book getBookById(Long id);

    Book saveBook(Book book);

    void deleteBook(Long id);

    List<Book> searchBooks(String keyword);
}

// BookServiceImpl.java
@Service
public class BookServiceImpl implements BookService {
    @Autowired
    private BookRepository bookRepository;

    @Override
    public List<Book> getAllBooks() {
        return bookRepository.findAll();
    }

    @Override
    public Book getBookById(Long id) {
        return bookRepository.findById(id).orElse(null);
    }

    @Override
    public Book saveBook(Book book) {
        return bookRepository.save(book);
    }

    @Override
    public void deleteBook(Long id) {
        bookRepository.deleteById(id);
    }

    @Override
    public List<Book> searchBooks(String keyword) {
        return bookRepository.findByTitleContainingIgnoreCase(keyword);
    }
}
AuthorService Implementation:
java
Copy code
// AuthorService.java
public interface AuthorService {
    List<Author> getAllAuthors();

    Author getAuthorById(Long id);

    Author saveAuthor(Author author);

    void deleteAuthor(Long id);

    List<Author> searchAuthors(String keyword);
}

// AuthorServiceImpl.java
@Service
public class AuthorServiceImpl implements AuthorService {
    @Autowired
    private AuthorRepository authorRepository;

    @Override
    public List<Author> getAllAuthors() {
        return authorRepository.findAll();
    }

    @Override
    public Author getAuthorById(Long id) {
        return authorRepository.findById(id).orElse(null);
    }

    @Override
    public Author saveAuthor(Author author) {
        return authorRepository.save(author);
    }

    @Override
    public void deleteAuthor(Long id) {
        authorRepository.deleteById(id);
    }

    @Override
    public List<Author> searchAuthors(String keyword) {
        return authorRepository.findByNameContainingIgnoreCase(keyword);
    }
}
GenreService Implementation:
java
Copy code
// GenreService.java
public interface GenreService {
    List<Genre> getAllGenres();

    Genre getGenreById(Long id);

    Genre saveGenre(Genre genre);

    void deleteGenre(Long id);

    List<Genre> searchGenres(String keyword);
}

// GenreServiceImpl.java
@Service
public class GenreServiceImpl implements GenreService {
    @Autowired
    private GenreRepository genreRepository;

    @Override
    public List<Genre> getAllGenres() {
        return genreRepository.findAll();
    }

    @Override
    public Genre getGenreById(Long id) {
        return genreRepository.findById(id).orElse(null);
    }

    @Override
    public Genre saveGenre(Genre genre) {
        return genreRepository.save(genre);
    }

    @Override
    public void deleteGenre(Long id) {
        genreRepository.deleteById(id);
    }

    @Override
    public List<Genre> searchGenres(String keyword) {
        return genreRepository.findByNameContainingIgnoreCase(keyword);
    }
}
Remember to annotate your service classes with @Service and inject the corresponding repositories using @Autowired. These service classes will serve as the intermediate layer between your controllers and repositories, encapsulating the business logic for your application.

User
create controllers for this application
ChatGPT
Certainly! Below are sample implementations for the controllers. You'll need to create three controllers: BookController, AuthorController, and GenreController.

BookController Implementation:
java
Copy code
// BookController.java
@RestController
@RequestMapping("/api/books")
public class BookController {
    @Autowired
    private BookService bookService;

    @GetMapping
    public List<Book> getAllBooks() {
        return bookService.getAllBooks();
    }

    @GetMapping("/{id}")
    public ResponseEntity<Book> getBookById(@PathVariable Long id) {
        Book book = bookService.getBookById(id);
        return ResponseEntity.ok().body(book);
    }

    @PostMapping
    public ResponseEntity<Book> saveBook(@RequestBody Book book) {
        Book savedBook = bookService.saveBook(book);
        return ResponseEntity.status(HttpStatus.CREATED).body(savedBook);
    }

    @PutMapping("/{id}")
    public ResponseEntity<Book> updateBook(@PathVariable Long id, @RequestBody Book book) {
        if (!id.equals(book.getId())) {
            return ResponseEntity.badRequest().build();
        }
        Book updatedBook = bookService.saveBook(book);
        return ResponseEntity.ok().body(updatedBook);
    }

    @DeleteMapping("/{id}")
    public ResponseEntity<Void> deleteBook(@PathVariable Long id) {
        bookService.deleteBook(id);
        return ResponseEntity.noContent().build();
    }

    @GetMapping("/search")
    public List<Book> searchBooks(@RequestParam String keyword) {
        return bookService.searchBooks(keyword);
    }
}
AuthorController Implementation:
java
Copy code
// AuthorController.java
@RestController
@RequestMapping("/api/authors")
public class AuthorController {
    @Autowired
    private AuthorService authorService;

    @GetMapping
    public List<Author> getAllAuthors() {
        return authorService.getAllAuthors();
    }

    @GetMapping("/{id}")
    public ResponseEntity<Author> getAuthorById(@PathVariable Long id) {
        Author author = authorService.getAuthorById(id);
        return ResponseEntity.ok().body(author);
    }

    @PostMapping
    public ResponseEntity<Author> saveAuthor(@RequestBody Author author) {
        Author savedAuthor = authorService.saveAuthor(author);
        return ResponseEntity.status(HttpStatus.CREATED).body(savedAuthor);
    }

    @PutMapping("/{id}")
    public ResponseEntity<Author> updateAuthor(@PathVariable Long id, @RequestBody Author author) {
        if (!id.equals(author.getId())) {
            return ResponseEntity.badRequest().build();
        }
        Author updatedAuthor = authorService.saveAuthor(author);
        return ResponseEntity.ok().body(updatedAuthor);
    }

    @DeleteMapping("/{id}")
    public ResponseEntity<Void> deleteAuthor(@PathVariable Long id) {
        authorService.deleteAuthor(id);
        return ResponseEntity.noContent().build();
    }

    @GetMapping("/search")
    public List<Author> searchAuthors(@RequestParam String keyword) {
        return authorService.searchAuthors(keyword);
    }
}
GenreController Implementation:
java
Copy code
// GenreController.java
@RestController
@RequestMapping("/api/genres")
public class GenreController {
    @Autowired
    private GenreService genreService;

    @GetMapping
    public List<Genre> getAllGenres() {
        return genreService.getAllGenres();
    }

    @GetMapping("/{id}")
    public ResponseEntity<Genre> getGenreById(@PathVariable Long id) {
        Genre genre = genreService.getGenreById(id);
        return ResponseEntity.ok().body(genre);
    }

    @PostMapping
    public ResponseEntity<Genre> saveGenre(@RequestBody Genre genre) {
        Genre savedGenre = genreService.saveGenre(genre);
        return ResponseEntity.status(HttpStatus.CREATED).body(savedGenre);
    }

    @PutMapping("/{id}")
    public ResponseEntity<Genre> updateGenre(@PathVariable Long id, @RequestBody Genre genre) {
        if (!id.equals(genre.getId())) {
            return ResponseEntity.badRequest().build();
        }
        Genre updatedGenre = genreService.saveGenre(genre);
        return ResponseEntity.ok().body(updatedGenre);
    }

    @DeleteMapping("/{id}")
    public ResponseEntity<Void> deleteGenre(@PathVariable Long id) {
        genreService.deleteGenre(id);
        return ResponseEntity.noContent().build();
    }

    @GetMapping("/search")
    public List<Genre> searchGenres(@RequestParam String keyword) {
        return genreService.searchGenres(keyword);
    }
}
These controllers expose endpoints for CRUD operations on books, authors, and genres. The search endpoints allow users to search for books, authors, or genres based on a provided keyword. Adjust the endpoints and request mappings as needed for your specific requirements.

User
provide  readme.md file for the application including description and instructions on how to run it.
ChatGPT
Certainly! Below is a basic README.md file for your Spring Boot application. Please customize it according to your project structure and additional details specific to your application.

markdown
Copy code
# Simple Online Bookstore Application

This is a simple online bookstore application built using Spring Boot and Hibernate. The application allows users to perform CRUD operations on books, authors, and genres. Users can also search for books by title, author, or genre.

## Table of Contents

- [Prerequisites](#prerequisites)
- [Getting Started](#getting-started)
- [Configuration](#configuration)
- [Endpoints](#endpoints)
- [Built With](#built-with)
- [Authors](#authors)
- [License](#license)

## Prerequisites

Before you begin, ensure you have the following installed:

- Java Development Kit (JDK)
- Maven
- PostgreSQL Database (or any other database of your choice)

## Getting Started

1. Clone the repository:

   ```bash
   git clone https://github.com/yourusername/your-bookstore-app.git
   cd your-bookstore-app
Build the project:

bash
Copy code
mvn clean install
Run the application:

bash
Copy code
mvn spring-boot:run
The application will be accessible at http://localhost:8080.

Configuration
Update the application.properties file in the src/main/resources directory with your database configuration:

properties
Copy code
spring.datasource.url=jdbc:postgresql://localhost:5432/your_database_name
spring.datasource.username=your_username
spring.datasource.password=your_password
spring.datasource.driver-class-name=org.postgresql.Driver
Replace your_database_name, your_username, and your_password with your actual database details.

Endpoints
Books:

Get all books: GET /api/books
Get book by ID: GET /api/books/{id}
Save a new book: POST /api/books
Update a book: PUT /api/books/{id}
Delete a book: DELETE /api/books/{id}
Search books: GET /api/books/search?keyword={keyword}
Authors:

Get all authors: GET /api/authors
Get author by ID: GET /api/authors/{id}
Save a new author: POST /api/authors
Update an author: PUT /api/authors/{id}
Delete an author: DELETE /api/authors/{id}
Search authors: GET /api/authors/search?keyword={keyword}
Genres:

Get all genres: GET /api/genres
Get genre by ID: GET /api/genres/{id}
Save a new genre: POST /api/genres
Update a genre: PUT /api/genres/{id}
Delete a genre: DELETE /api/genres/{id}
Search genres: GET /api/genres/search?keyword={keyword}
Built With
Spring Boot - Framework for creating Java-based, production-grade Spring applications.
Hibernate - Object-relational mapping framework for Java.
Authors
[Your Name]
License
This project is licensed under the MIT License - see the LICENSE file for details.

javascript
Copy code

Make sure to replace placeholders like `yourusername`, `your-bookstore-app`, `your_database_name`, `your_username`, `your_password`, and `[Your Name]` with your actual information.

This `README.md` provides basic instructions on how to clone, build, configure, and run the application. It also includes information about the available endpoints and technologies used in the project. Adjust and expand it based on the specifics of your project.
User
provide Json format of requests for BookController
ChatGPT
Certainly! Below are JSON formats for requests that you can use with the BookController endpoints:

Save a New Book:
Request:

json
Copy code
POST /api/books

{
  "title": "The Great Gatsby",
  "price": 19.99,
  "quantityAvailable": 100,
  "author": {
    "id": 1
  },
  "genre": {
    "id": 2
  }
}
Update a Book:
Request:

json
Copy code
PUT /api/books/{id}

{
  "id": 1,
  "title": "The Great Gatsby",
  "price": 24.99,
  "quantityAvailable": 80,
  "author": {
    "id": 1
  },
  "genre": {
    "id": 2
  }
}
Search Books:
Request:

json
Copy code
GET /api/books/search?keyword=great
Note:
In the above examples, replace {id}, 1, and 2 with actual values as per your database.
Make sure to replace the author and genre IDs with valid existing IDs.
The search endpoint returns a list of books containing the specified keyword in the title. Adjust the keyword as needed.
User
create test for controller and service classes and provide all source codes
ChatGPT
Certainly! Below, I'll provide sample test classes for the BookController, AuthorController, GenreController, BookService, AuthorService, and GenreService. Please note that these are basic examples, and you may need to adapt them to your specific requirements.

BookController Test:
java
Copy code
@RunWith(SpringRunner.class)
@SpringBootTest
@AutoConfigureMockMvc
public class BookControllerTest {

    @Autowired
    private MockMvc mockMvc;

    @Autowired
    private ObjectMapper objectMapper;

    @MockBean
    private BookService bookService;

    @Test
    public void testGetAllBooks() throws Exception {
        // Implement test for GET /api/books
    }

    @Test
    public void testGetBookById() throws Exception {
        // Implement test for GET /api/books/{id}
    }

    @Test
    public void testSaveBook() throws Exception {
        // Implement test for POST /api/books
    }

    @Test
    public void testUpdateBook() throws Exception {
        // Implement test for PUT /api/books/{id}
    }

    @Test
    public void testDeleteBook() throws Exception {
        // Implement test for DELETE /api/books/{id}
    }

    @Test
    public void testSearchBooks() throws Exception {
        // Implement test for GET /api/books/search?keyword={keyword}
    }
}
AuthorController Test:
java
Copy code
// Similar structure as BookControllerTest, with tests for AuthorController endpoints
GenreController Test:
java
Copy code
// Similar structure as BookControllerTest, with tests for GenreController endpoints
BookService Test:
java
Copy code
@RunWith(MockitoJUnitRunner.class)
public class BookServiceTest {

    @Mock
    private BookRepository bookRepository;

    @InjectMocks
    private BookServiceImpl bookService;

    @Test
    public void testGetAllBooks() {
        // Implement test for getAllBooks method in BookService
    }

    @Test
    public void testGetBookById() {
        // Implement test for getBookById method in BookService
    }

    @Test
    public void testSaveBook() {
        // Implement test for saveBook method in BookService
    }

    @Test
    public void testDeleteBook() {
        // Implement test for deleteBook method in BookService
    }

    @Test
    public void testSearchBooks() {
        // Implement test for searchBooks method in BookService
    }
}
AuthorService Test:
java
Copy code
// Similar structure as BookServiceTest, with tests for AuthorService methods
GenreService Test:
java
Copy code
// Similar structure as BookServiceTest, with tests for GenreService methods
These are basic templates, and you should implement the actual test cases based on your application's requirements. Use libraries like JUnit and Mockito for testing, and ensure that your tests cover a range of scenarios, including edge cases and error conditions.

User
cannot find "@RunWith()"  annotation
ChatGPT
I apologize for the confusion. The @RunWith annotation is used in JUnit 4. In JUnit 5, the @ExtendWith annotation is used instead. Here's an updated version using JUnit 5:

BookController Test:
java
Copy code
import org.junit.jupiter.api.Test;
import org.junit.jupiter.api.extension.ExtendWith;
import org.mockito.InjectMocks;
import org.mockito.Mock;
import org.mockito.junit.jupiter.MockitoExtension;
import org.springframework.beans.factory.annotation.Autowired;
import org.springframework.boot.test.autoconfigure.web.servlet.AutoConfigureMockMvc;
import org.springframework.boot.test.context.SpringBootTest;
import org.springframework.test.web.servlet.MockMvc;
import org.springframework.test.web.servlet.request.MockMvcRequestBuilders;

@SpringBootTest
@AutoConfigureMockMvc
@ExtendWith(MockitoExtension.class)
public class BookControllerTest {

    @Autowired
    private MockMvc mockMvc;

    @Mock
    private BookService bookService;

    @InjectMocks
    private BookController bookController;

    @Test
    public void testGetAllBooks() throws Exception {
        // Implement test for GET /api/books
    }

    // Other test methods...
}
AuthorController Test:
java
Copy code
// Similar structure as BookControllerTest, with tests for AuthorController endpoints
GenreController Test:
java
Copy code
// Similar structure as BookControllerTest, with tests for GenreController endpoints
BookService Test:
java
Copy code
import org.junit.jupiter.api.Test;
import org.mockito.InjectMocks;
import org.mockito.Mock;
import org.springframework.boot.test.context.SpringBootTest;

@SpringBootTest
public class BookServiceTest {

    @Mock
    private BookRepository bookRepository;

    @InjectMocks
    private BookServiceImpl bookService;

    @Test
    public void testGetAllBooks() {
        // Implement test for getAllBooks method in BookService
    }

    // Other test methods...
}
AuthorService Test:
java
Copy code
// Similar structure as BookServiceTest, with tests for AuthorService methods
GenreService Test:
java
Copy code
// Similar structure as BookServiceTest, with tests for GenreService methods
In these examples, I've replaced @RunWith with @ExtendWith for JUnit 5 compatibility. Make sure you have the appropriate dependencies in your project for JUnit 5 and Mockito.

User
provide all source codes for controller tests
ChatGPT
Certainly! Here are simplified examples for controller tests using JUnit 5 and Mockito:

BookControllerTest:
java
Copy code
import com.fasterxml.jackson.databind.ObjectMapper;
import org.junit.jupiter.api.Test;
import org.mockito.InjectMocks;
import org.mockito.Mock;
import org.springframework.boot.test.autoconfigure.web.servlet.WebMvcTest;
import org.springframework.boot.test.mock.mockito.MockBean;
import org.springframework.http.MediaType;
import org.springframework.test.web.servlet.MockMvc;
import org.springframework.test.web.servlet.request.MockMvcRequestBuilders;
import java.util.Arrays;
import java.util.List;

import static org.mockito.Mockito.*;
import static org.springframework.test.web.servlet.result.MockMvcResultMatchers.*;

@WebMvcTest(BookController.class)
public class BookControllerTest {

    @Autowired
    private MockMvc mockMvc;

    @MockBean
    private BookService bookService;

    @Autowired
    private ObjectMapper objectMapper;

    @Test
    public void testGetAllBooks() throws Exception {
        // Mocking service
        List<Book> books = Arrays.asList(new Book(1L, "Book1", 19.99, 100, new Author(1L, "Author1"), new Genre(1L, "Genre1")));
        when(bookService.getAllBooks()).thenReturn(books);

        // Performing GET request
        mockMvc.perform(MockMvcRequestBuilders.get("/api/books"))
                .andExpect(status().isOk())
                .andExpect(content().contentType(MediaType.APPLICATION_JSON))
                .andExpect(jsonPath("$[0].title").value("Book1"));
    }

    @Test
    public void testGetBookById() throws Exception {
        // Mocking service
        Book book = new Book(1L, "Book1", 19.99, 100, new Author(1L, "Author1"), new Genre(1L, "Genre1"));
        when(bookService.getBookById(1L)).thenReturn(book);

        // Performing GET request
        mockMvc.perform(MockMvcRequestBuilders.get("/api/books/1"))
                .andExpect(status().isOk())
                .andExpect(content().contentType(MediaType.APPLICATION_JSON))
                .andExpect(jsonPath("$.title").value("Book1"));
    }

    // Other test methods for save, update, delete, and search endpoints...
}
AuthorControllerTest:
java
Copy code
// Similar structure as BookControllerTest, with tests for AuthorController endpoints
GenreControllerTest:
java
Copy code
// Similar structure as BookControllerTest, with tests for GenreController endpoints
These tests use @WebMvcTest to focus on testing the controllers in isolation. The @MockBean annotation is used to mock the service layer. Adjust these tests based on your actual controller logic and service interactions. Ensure you have the necessary dependencies for testing in your project, such as JUnit 5 and Mockito.

User
provide other test cases and all source codes of BookControllerTest class
ChatGPT
Certainly! I'll provide additional test cases for the remaining operations in BookController and the full source code for BookControllerTest.

Complete BookControllerTest Class:
java
Copy code
import com.fasterxml.jackson.databind.ObjectMapper;
import org.junit.jupiter.api.Test;
import org.mockito.InjectMocks;
import org.mockito.Mock;
import org.springframework.boot.test.autoconfigure.web.servlet.WebMvcTest;
import org.springframework.boot.test.mock.mockito.MockBean;
import org.springframework.http.MediaType;
import org.springframework.test.web.servlet.MockMvc;
import org.springframework.test.web.servlet.request.MockMvcRequestBuilders;

import java.util.Arrays;
import java.util.List;

import static org.mockito.Mockito.*;
import static org.springframework.test.web.servlet.result.MockMvcResultMatchers.*;

@WebMvcTest(BookController.class)
public class BookControllerTest {

    @Autowired
    private MockMvc mockMvc;

    @MockBean
    private BookService bookService;

    @Autowired
    private ObjectMapper objectMapper;

    @Test
    public void testGetAllBooks() throws Exception {
        // Mocking service
        List<Book> books = Arrays.asList(new Book(1L, "Book1", 19.99, 100, new Author(1L, "Author1"), new Genre(1L, "Genre1")));
        when(bookService.getAllBooks()).thenReturn(books);

        // Performing GET request
        mockMvc.perform(MockMvcRequestBuilders.get("/api/books"))
                .andExpect(status().isOk())
                .andExpect(content().contentType(MediaType.APPLICATION_JSON))
                .andExpect(jsonPath("$[0].title").value("Book1"));
    }

    @Test
    public void testGetBookById() throws Exception {
        // Mocking service
        Book book = new Book(1L, "Book1", 19.99, 100, new Author(1L, "Author1"), new Genre(1L, "Genre1"));
        when(bookService.getBookById(1L)).thenReturn(book);

        // Performing GET request
        mockMvc.perform(MockMvcRequestBuilders.get("/api/books/1"))
                .andExpect(status().isOk())
                .andExpect(content().contentType(MediaType.APPLICATION_JSON))
                .andExpect(jsonPath("$.title").value("Book1"));
    }

    @Test
    public void testSaveBook() throws Exception {
        // Mocking service
        Book bookToSave = new Book(null, "NewBook", 29.99, 50, new Author(2L, "Author2"), new Genre(2L, "Genre2"));
        Book savedBook = new Book(2L, "NewBook", 29.99, 50, new Author(2L, "Author2"), new Genre(2L, "Genre2"));
        when(bookService.saveBook(bookToSave)).thenReturn(savedBook);

        // Performing POST request
        mockMvc.perform(MockMvcRequestBuilders.post("/api/books")
                .contentType(MediaType.APPLICATION_JSON)
                .content(objectMapper.writeValueAsString(bookToSave)))
                .andExpect(status().isCreated())
                .andExpect(content().contentType(MediaType.APPLICATION_JSON))
                .andExpect(jsonPath("$.title").value("NewBook"));
    }

    @Test
    public void testUpdateBook() throws Exception {
        // Mocking service
        Book existingBook = new Book(1L, "Book1", 19.99, 100, new Author(1L, "Author1"), new Genre(1L, "Genre1"));
        Book updatedBook = new Book(1L, "UpdatedBook", 24.99, 80, new Author(1L, "Author1"), new Genre(1L, "Genre1"));
        when(bookService.saveBook(updatedBook)).thenReturn(updatedBook);

        // Performing PUT request
        mockMvc.perform(MockMvcRequestBuilders.put("/api/books/1")
                .contentType(MediaType.APPLICATION_JSON)
                .content(objectMapper.writeValueAsString(updatedBook)))
                .andExpect(status().isOk())
                .andExpect(content().contentType(MediaType.APPLICATION_JSON))
                .andExpect(jsonPath("$.title").value("UpdatedBook"));
    }

    @Test
    public void testDeleteBook() throws Exception {
        // Performing DELETE request
        mockMvc.perform(MockMvcRequestBuilders.delete("/api/books/1"))
                .andExpect(status().isNoContent());
    }

    @Test
    public void testSearchBooks() throws Exception {
        // Mocking service
        List<Book> searchedBooks = Arrays.asList(new Book(1L, "Book1", 19.99, 100, new Author(1L, "Author1"), new Genre(1L, "Genre1")));
        when(bookService.searchBooks("Book")).thenReturn(searchedBooks);

        // Performing GET request for search
        mockMvc.perform(MockMvcRequestBuilders.get("/api/books/search?keyword=Book"))
                .andExpect(status().isOk())
                .andExpect(content().contentType(MediaType.APPLICATION_JSON))
                .andExpect(jsonPath("$[0].title").value("Book1"));
    }
}
In this BookControllerTest class, I've added test cases for saving, updating, and deleting books, as well as searching for books based on a keyword. Adjust these tests based on your actual controller logic and service interactions. Ensure you have the necessary dependencies for testing in your project, such as JUnit 5 and Mockito.

User
i got this error """Content type not set
java.lang.AssertionError: Content type not set""" when i run this test method """@Test
    void testSaveBook() throws Exception {
        // Mocking service
        Book bookToSave = new Book(null, "NewBook", 29.99, 50, new Author(2L, "Author2"), new Genre(2L, "Genre2"));
        Book savedBook = new Book(2L, "NewBook", 29.99, 50, new Author(2L, "Author2"), new Genre(2L, "Genre2"));
        when(bookService.saveBook(bookToSave)).thenReturn(savedBook);

        // Performing POST request
        mockMvc.perform(MockMvcRequestBuilders.post("/api/books")
                        .contentType(MediaType.APPLICATION_JSON)
                        .content(objectMapper.writeValueAsString(bookToSave)))
                .andExpect(status().isCreated())
                .andExpect(content().contentType(MediaType.APPLICATION_JSON))
                .andExpect(jsonPath("$.title").value("NewBook"));
    }"""
ChatGPT
The error you're encountering, "Content type not set," suggests that the content-type header is not being properly set in the POST request. In the test method you provided, you are explicitly setting the content type:

java
Copy code
.contentType(MediaType.APPLICATION_JSON)
However, it seems like there might be an issue with the import of MediaType. Make sure you are importing it from org.springframework.http.MediaType. If you're using a different import, it might not be recognized correctly.

Here's the corrected import statement:

java
Copy code
import org.springframework.http.MediaType;
Ensure that this import is used in your test class. If the issue persists, you might want to check if there are any other conflicting dependencies or imports in your test class that could be causing the problem.

Here's the updated import statement in the context of your BookControllerTest class:

java
Copy code
import org.springframework.http.MediaType;

// other imports...
Make sure there are no conflicting imports that might override the correct MediaType class. If the problem persists, please share the complete code of your test class, and I'll be happy to help you identify the issue.

User
fix and regenerate this test method: """   @Test
    void testSaveBook() throws Exception {
        // Mocking service
        Book bookToSave = new Book(null, "NewBook", 29.99, 50, new Author(2L, "Author2"), new Genre(2L, "Genre2"));
        Book savedBook = new Book(2L, "NewBook", 29.99, 50, new Author(2L, "Author2"), new Genre(2L, "Genre2"));
        when(bookService.saveBook(bookToSave)).thenReturn(savedBook);

        // Performing POST request
        mockMvc.perform(MockMvcRequestBuilders.post("/api/books")
                        .contentType(MediaType.APPLICATION_JSON)
                        .content(objectMapper.writeValueAsString(bookToSave)))
                .andExpect(status().isCreated())
                .andExpect(content().contentType(MediaType.APPLICATION_JSON))
                .andExpect(jsonPath("$.title").value("NewBook"));
    }"""
ChatGPT
Certainly! Here's the corrected and regenerated version of the testSaveBook method:

java
Copy code
@Test
void testSaveBook() throws Exception {
    // Mocking service
    Book bookToSave = new Book(null, "NewBook", 29.99, 50, new Author(2L, "Author2"), new Genre(2L, "Genre2"));
    Book savedBook = new Book(2L, "NewBook", 29.99, 50, new Author(2L, "Author2"), new Genre(2L, "Genre2"));
    when(bookService.saveBook(any(Book.class))).thenReturn(savedBook);

    // Performing POST request
    mockMvc.perform(post("/api/books")
            .contentType(MediaType.APPLICATION_JSON)
            .content(objectMapper.writeValueAsString(bookToSave)))
            .andExpect(status().isCreated())
            .andExpect(content().contentType(MediaType.APPLICATION_JSON))
            .andExpect(jsonPath("$.title").value("NewBook"));

    verify(bookService, times(1)).saveBook(any(Book.class));
}
Changes made:

Used post method directly from MockMvcRequestBuilders.
Instead of matching a specific bookToSave object in the when statement, used any(Book.class) to match any Book object. This ensures that the mock is triggered regardless of the specific argument.
Added a verification step using verify to ensure that the saveBook method of the bookService is called exactly once with any Book object.
Make sure to replace any(Book.class) with the actual argument matcher based on your needs if required. The verify step adds an assertion that the saveBook method is called, which is good practice to ensure that the intended method interactions are happening during the test.

User
fix and regenerate this too :   @Test
    void testUpdateBook() throws Exception {
        // Mocking service
        Book existingBook = new Book(1L, "Book1", 19.99, 100, new Author(1L, "Author1"), new Genre(1L, "Genre1"));
        Book updatedBook = new Book(1L, "UpdatedBook", 24.99, 80, new Author(1L, "Author1"), new Genre(1L, "Genre1"));
        when(bookService.saveBook(updatedBook)).thenReturn(updatedBook);

        // Performing PUT request
        mockMvc.perform(MockMvcRequestBuilders.put("/api/books/1")
                        .contentType(MediaType.APPLICATION_JSON)
                        .content(objectMapper.writeValueAsString(updatedBook)))
                .andExpect(status().isOk())
                .andExpect(content().contentType(MediaType.APPLICATION_JSON))
                .andExpect(jsonPath("$.title").value("UpdatedBook"));
    }
ChatGPT
Here's the corrected and regenerated version of the testUpdateBook method:

java
Copy code
@Test
void testUpdateBook() throws Exception {
    // Mocking service
    Book existingBook = new Book(1L, "Book1", 19.99, 100, new Author(1L, "Author1"), new Genre(1L, "Genre1"));
    Book updatedBook = new Book(1L, "UpdatedBook", 24.99, 80, new Author(1L, "Author1"), new Genre(1L, "Genre1"));
    when(bookService.saveBook(any(Book.class))).thenReturn(updatedBook);

    // Performing PUT request
    mockMvc.perform(put("/api/books/1")
            .contentType(MediaType.APPLICATION_JSON)
            .content(objectMapper.writeValueAsString(updatedBook)))
            .andExpect(status().isOk())
            .andExpect(content().contentType(MediaType.APPLICATION_JSON))
            .andExpect(jsonPath("$.title").value("UpdatedBook"));

    verify(bookService, times(1)).saveBook(any(Book.class));
}
Changes made:

Used put method directly from MockMvcRequestBuilders.
Instead of matching a specific updatedBook object in the when statement, used any(Book.class) to match any Book object. This ensures that the mock is triggered regardless of the specific argument.
Added a verification step using verify to ensure that the saveBook method of the bookService is called exactly once with any Book object.
Again, make sure to replace any(Book.class) with the actual argument matcher based on your needs if required. The verify step adds an assertion that the saveBook method is called, which is good practice to ensure that the intended method interactions are happening during the test.

User
create test cases for AuthorController class and provide all source codes
ChatGPT
Certainly! Below are test cases for the AuthorController class along with the complete source code for the AuthorControllerTest class. Please note that these are simplified examples, and you may need to adapt them based on your actual controller logic and service interactions.

java
Copy code
import com.fasterxml.jackson.databind.ObjectMapper;
import org.junit.jupiter.api.Test;
import org.mockito.InjectMocks;
import org.mockito.Mock;
import org.springframework.boot.test.autoconfigure.web.servlet.WebMvcTest;
import org.springframework.boot.test.mock.mockito.MockBean;
import org.springframework.http.MediaType;
import org.springframework.test.web.servlet.MockMvc;
import org.springframework.test.web.servlet.request.MockMvcRequestBuilders;

import java.util.Arrays;
import java.util.List;

import static org.mockito.Mockito.*;
import static org.springframework.test.web.servlet.result.MockMvcResultMatchers.*;

@WebMvcTest(AuthorController.class)
public class AuthorControllerTest {

    @Autowired
    private MockMvc mockMvc;

    @MockBean
    private AuthorService authorService;

    @Autowired
    private ObjectMapper objectMapper;

    @Test
    void testGetAllAuthors() throws Exception {
        // Mocking service
        List<Author> authors = Arrays.asList(new Author(1L, "Author1"), new Author(2L, "Author2"));
        when(authorService.getAllAuthors()).thenReturn(authors);

        // Performing GET request
        mockMvc.perform(MockMvcRequestBuilders.get("/api/authors"))
                .andExpect(status().isOk())
                .andExpect(content().contentType(MediaType.APPLICATION_JSON))
                .andExpect(jsonPath("$[0].name").value("Author1"));
    }

    @Test
    void testGetAuthorById() throws Exception {
        // Mocking service
        Author author = new Author(1L, "Author1");
        when(authorService.getAuthorById(1L)).thenReturn(author);

        // Performing GET request
        mockMvc.perform(MockMvcRequestBuilders.get("/api/authors/1"))
                .andExpect(status().isOk())
                .andExpect(content().contentType(MediaType.APPLICATION_JSON))
                .andExpect(jsonPath("$.name").value("Author1"));
    }

    @Test
    void testSaveAuthor() throws Exception {
        // Mocking service
        Author authorToSave = new Author(null, "NewAuthor");
        Author savedAuthor = new Author(3L, "NewAuthor");
        when(authorService.saveAuthor(any(Author.class))).thenReturn(savedAuthor);

        // Performing POST request
        mockMvc.perform(MockMvcRequestBuilders.post("/api/authors")
                .contentType(MediaType.APPLICATION_JSON)
                .content(objectMapper.writeValueAsString(authorToSave)))
                .andExpect(status().isCreated())
                .andExpect(content().contentType(MediaType.APPLICATION_JSON))
                .andExpect(jsonPath("$.name").value("NewAuthor"));

        verify(authorService, times(1)).saveAuthor(any(Author.class));
    }

    @Test
    void testUpdateAuthor() throws Exception {
        // Mocking service
        Author existingAuthor = new Author(1L, "Author1");
        Author updatedAuthor = new Author(1L, "UpdatedAuthor");
        when(authorService.saveAuthor(any(Author.class))).thenReturn(updatedAuthor);

        // Performing PUT request
        mockMvc.perform(MockMvcRequestBuilders.put("/api/authors/1")
                .contentType(MediaType.APPLICATION_JSON)
                .content(objectMapper.writeValueAsString(updatedAuthor)))
                .andExpect(status().isOk())
                .andExpect(content().contentType(MediaType.APPLICATION_JSON))
                .andExpect(jsonPath("$.name").value("UpdatedAuthor"));

        verify(authorService, times(1)).saveAuthor(any(Author.class));
    }

    @Test
    void testDeleteAuthor() throws Exception {
        // Performing DELETE request
        mockMvc.perform(MockMvcRequestBuilders.delete("/api/authors/1"))
                .andExpect(status().isNoContent());

        verify(authorService, times(1)).deleteAuthor(1L);
    }

    @Test
    void testSearchAuthors() throws Exception {
        // Mocking service
        List<Author> searchedAuthors = Arrays.asList(new Author(1L, "Author1"));
        when(authorService.searchAuthors("Author")).thenReturn(searchedAuthors);

        // Performing GET request for search
        mockMvc.perform(MockMvcRequestBuilders.get("/api/authors/search?keyword=Author"))
                .andExpect(status().isOk())
                .andExpect(content().contentType(MediaType.APPLICATION_JSON))
                .andExpect(jsonPath("$[0].name").value("Author1"));
    }
}
In this AuthorControllerTest class, I've added test cases for saving, updating, and deleting authors, as well as searching for authors based on a keyword. Adjust these tests based on your actual controller logic and service interactions. Ensure you have the necessary dependencies for testing in your project, such as JUnit 5 and Mockito.

User
provide test cases for GenreController and provide all source codes
ChatGPT
Certainly! Below are test cases for the GenreController class along with the complete source code for the GenreControllerTest class. These are basic examples, and you may need to adjust them based on your actual controller logic and service interactions.

java
Copy code
import com.fasterxml.jackson.databind.ObjectMapper;
import org.junit.jupiter.api.Test;
import org.mockito.InjectMocks;
import org.mockito.Mock;
import org.springframework.boot.test.autoconfigure.web.servlet.WebMvcTest;
import org.springframework.boot.test.mock.mockito.MockBean;
import org.springframework.http.MediaType;
import org.springframework.test.web.servlet.MockMvc;
import org.springframework.test.web.servlet.request.MockMvcRequestBuilders;

import java.util.Arrays;
import java.util.List;

import static org.mockito.Mockito.*;
import static org.springframework.test.web.servlet.result.MockMvcResultMatchers.*;

@WebMvcTest(GenreController.class)
public class GenreControllerTest {

    @Autowired
    private MockMvc mockMvc;

    @MockBean
    private GenreService genreService;

    @Autowired
    private ObjectMapper objectMapper;

    @Test
    void testGetAllGenres() throws Exception {
        // Mocking service
        List<Genre> genres = Arrays.asList(new Genre(1L, "Genre1"), new Genre(2L, "Genre2"));
        when(genreService.getAllGenres()).thenReturn(genres);

        // Performing GET request
        mockMvc.perform(MockMvcRequestBuilders.get("/api/genres"))
                .andExpect(status().isOk())
                .andExpect(content().contentType(MediaType.APPLICATION_JSON))
                .andExpect(jsonPath("$[0].name").value("Genre1"));
    }

    @Test
    void testGetGenreById() throws Exception {
        // Mocking service
        Genre genre = new Genre(1L, "Genre1");
        when(genreService.getGenreById(1L)).thenReturn(genre);

        // Performing GET request
        mockMvc.perform(MockMvcRequestBuilders.get("/api/genres/1"))
                .andExpect(status().isOk())
                .andExpect(content().contentType(MediaType.APPLICATION_JSON))
                .andExpect(jsonPath("$.name").value("Genre1"));
    }

    @Test
    void testSaveGenre() throws Exception {
        // Mocking service
        Genre genreToSave = new Genre(null, "NewGenre");
        Genre savedGenre = new Genre(3L, "NewGenre");
        when(genreService.saveGenre(any(Genre.class))).thenReturn(savedGenre);

        // Performing POST request
        mockMvc.perform(MockMvcRequestBuilders.post("/api/genres")
                .contentType(MediaType.APPLICATION_JSON)
                .content(objectMapper.writeValueAsString(genreToSave)))
                .andExpect(status().isCreated())
                .andExpect(content().contentType(MediaType.APPLICATION_JSON))
                .andExpect(jsonPath("$.name").value("NewGenre"));

        verify(genreService, times(1)).saveGenre(any(Genre.class));
    }

    @Test
    void testUpdateGenre() throws Exception {
        // Mocking service
        Genre existingGenre = new Genre(1L, "Genre1");
        Genre updatedGenre = new Genre(1L, "UpdatedGenre");
        when(genreService.saveGenre(any(Genre.class))).thenReturn(updatedGenre);

        // Performing PUT request
        mockMvc.perform(MockMvcRequestBuilders.put("/api/genres/1")
                .contentType(MediaType.APPLICATION_JSON)
                .content(objectMapper.writeValueAsString(updatedGenre)))
                .andExpect(status().isOk())
                .andExpect(content().contentType(MediaType.APPLICATION_JSON))
                .andExpect(jsonPath("$.name").value("UpdatedGenre"));

        verify(genreService, times(1)).saveGenre(any(Genre.class));
    }

    @Test
    void testDeleteGenre() throws Exception {
        // Performing DELETE request
        mockMvc.perform(MockMvcRequestBuilders.delete("/api/genres/1"))
                .andExpect(status().isNoContent());

        verify(genreService, times(1)).deleteGenre(1L);
    }

    @Test
    void testSearchGenres() throws Exception {
        // Mocking service
        List<Genre> searchedGenres = Arrays.asList(new Genre(1L, "Genre1"));
        when(genreService.searchGenres("Genre")).thenReturn(searchedGenres);

        // Performing GET request for search
        mockMvc.perform(MockMvcRequestBuilders.get("/api/genres/search?keyword=Genre"))
                .andExpect(status().isOk())
                .andExpect(content().contentType(MediaType.APPLICATION_JSON))
                .andExpect(jsonPath("$[0].name").value("Genre1"));
    }
}
In this GenreControllerTest class, I've added test cases for saving, updating, and deleting genres, as well as searching for genres based on a keyword. Adjust these tests based on your actual controller logic and service interactions. Ensure you have the necessary dependencies for testing in your project, such as JUnit 5 and Mockito.

User
provide test cases for GenreService with all source codes
ChatGPT
Certainly! Below are test cases for the GenreService class along with the complete source code for the GenreServiceTest class. These are basic examples, and you may need to adjust them based on your actual service logic and repository interactions.

java
Copy code
import org.junit.jupiter.api.Test;
import org.mockito.InjectMocks;
import org.mockito.Mock;
import org.springframework.boot.test.context.SpringBootTest;

import java.util.Arrays;
import java.util.List;
import java.util.Optional;

import static org.junit.jupiter.api.Assertions.assertEquals;
import static org.mockito.Mockito.*;

@SpringBootTest
public class GenreServiceTest {

    @Mock
    private GenreRepository genreRepository;

    @InjectMocks
    private GenreServiceImpl genreService;

    @Test
    void testGetAllGenres() {
        // Mocking repository
        List<Genre> genres = Arrays.asList(new Genre(1L, "Genre1"), new Genre(2L, "Genre2"));
        when(genreRepository.findAll()).thenReturn(genres);

        // Calling service method
        List<Genre> result = genreService.getAllGenres();

        // Assertions
        assertEquals(2, result.size());
        assertEquals("Genre1", result.get(0).getName());
        assertEquals("Genre2", result.get(1).getName());

        // Verify repository method is called
        verify(genreRepository, times(1)).findAll();
    }

    @Test
    void testGetGenreById() {
        // Mocking repository
        Genre genre = new Genre(1L, "Genre1");
        when(genreRepository.findById(1L)).thenReturn(Optional.of(genre));

        // Calling service method
        Genre result = genreService.getGenreById(1L);

        // Assertions
        assertEquals("Genre1", result.getName());

        // Verify repository method is called
        verify(genreRepository, times(1)).findById(1L);
    }

    @Test
    void testSaveGenre() {
        // Mocking repository
        Genre genreToSave = new Genre(null, "NewGenre");
        Genre savedGenre = new Genre(3L, "NewGenre");
        when(genreRepository.save(genreToSave)).thenReturn(savedGenre);

        // Calling service method
        Genre result = genreService.saveGenre(genreToSave);

        // Assertions
        assertEquals(3L, result.getId());
        assertEquals("NewGenre", result.getName());

        // Verify repository method is called
        verify(genreRepository, times(1)).save(genreToSave);
    }

    @Test
    void testDeleteGenre() {
        // Calling service method
        genreService.deleteGenre(1L);

        // Verify repository method is called
        verify(genreRepository, times(1)).deleteById(1L);
    }

    @Test
    void testSearchGenres() {
        // Mocking repository
        List<Genre> searchedGenres = Arrays.asList(new Genre(1L, "Genre1"));
        when(genreRepository.findByNameContainingIgnoreCase("Genre")).thenReturn(searchedGenres);

        // Calling service method
        List<Genre> result = genreService.searchGenres("Genre");

        // Assertions
        assertEquals(1, result.size());
        assertEquals("Genre1", result.get(0).getName());

        // Verify repository method is called
        verify(genreRepository, times(1)).findByNameContainingIgnoreCase("Genre");
    }
}
In this GenreServiceTest class, I've added test cases for getting all genres, getting a genre by ID, saving a genre, deleting a genre, and searching for genres based on a keyword. Adjust these tests based on your actual service logic and repository interactions. Ensure you have the necessary dependencies for testing in your project, such as JUnit 5 and Mockito.

User
provide test cases for AuthorService class with all source codes
ChatGPT
Certainly! Below are test cases for the AuthorService class along with the complete source code for the AuthorServiceTest class. These are basic examples, and you may need to adjust them based on your actual service logic and repository interactions.

java
Copy code
import org.junit.jupiter.api.Test;
import org.mockito.InjectMocks;
import org.mockito.Mock;
import org.springframework.boot.test.context.SpringBootTest;

import java.util.Arrays;
import java.util.List;
import java.util.Optional;

import static org.junit.jupiter.api.Assertions.assertEquals;
import static org.mockito.Mockito.*;

@SpringBootTest
public class AuthorServiceTest {

    @Mock
    private AuthorRepository authorRepository;

    @InjectMocks
    private AuthorServiceImpl authorService;

    @Test
    void testGetAllAuthors() {
        // Mocking repository
        List<Author> authors = Arrays.asList(new Author(1L, "Author1"), new Author(2L, "Author2"));
        when(authorRepository.findAll()).thenReturn(authors);

        // Calling service method
        List<Author> result = authorService.getAllAuthors();

        // Assertions
        assertEquals(2, result.size());
        assertEquals("Author1", result.get(0).getName());
        assertEquals("Author2", result.get(1).getName());

        // Verify repository method is called
        verify(authorRepository, times(1)).findAll();
    }

    @Test
    void testGetAuthorById() {
        // Mocking repository
        Author author = new Author(1L, "Author1");
        when(authorRepository.findById(1L)).thenReturn(Optional.of(author));

        // Calling service method
        Author result = authorService.getAuthorById(1L);

        // Assertions
        assertEquals("Author1", result.getName());

        // Verify repository method is called
        verify(authorRepository, times(1)).findById(1L);
    }

    @Test
    void testSaveAuthor() {
        // Mocking repository
        Author authorToSave = new Author(null, "NewAuthor");
        Author savedAuthor = new Author(3L, "NewAuthor");
        when(authorRepository.save(authorToSave)).thenReturn(savedAuthor);

        // Calling service method
        Author result = authorService.saveAuthor(authorToSave);

        // Assertions
        assertEquals(3L, result.getId());
        assertEquals("NewAuthor", result.getName());

        // Verify repository method is called
        verify(authorRepository, times(1)).save(authorToSave);
    }

    @Test
    void testDeleteAuthor() {
        // Calling service method
        authorService.deleteAuthor(1L);

        // Verify repository method is called
        verify(authorRepository, times(1)).deleteById(1L);
    }

    @Test
    void testSearchAuthors() {
        // Mocking repository
        List<Author> searchedAuthors = Arrays.asList(new Author(1L, "Author1"));
        when(authorRepository.findByNameContainingIgnoreCase("Author")).thenReturn(searchedAuthors);

        // Calling service method
        List<Author> result = authorService.searchAuthors("Author");

        // Assertions
        assertEquals(1, result.size());
        assertEquals("Author1", result.get(0).getName());

        // Verify repository method is called
        verify(authorRepository, times(1)).findByNameContainingIgnoreCase("Author");
    }
}
In this AuthorServiceTest class, I've added test cases for getting all authors, getting an author by ID, saving an author, deleting an author, and searching for authors based on a keyword. Adjust these tests based on your actual service logic and repository interactions. Ensure you have the necessary dependencies for testing in your project, such as JUnit 5 and Mockito.

User
provide test cases for BookService with all source codes
ChatGPT
Certainly! Below are test cases for the BookService class along with the complete source code for the BookServiceTest class. These are basic examples, and you may need to adjust them based on your actual service logic and repository interactions.

java
Copy code
import org.junit.jupiter.api.Test;
import org.mockito.InjectMocks;
import org.mockito.Mock;
import org.springframework.boot.test.context.SpringBootTest;

import java.util.Arrays;
import java.util.List;
import java.util.Optional;

import static org.junit.jupiter.api.Assertions.assertEquals;
import static org.mockito.Mockito.*;

@SpringBootTest
public class BookServiceTest {

    @Mock
    private BookRepository bookRepository;

    @InjectMocks
    private BookServiceImpl bookService;

    @Test
    void testGetAllBooks() {
        // Mocking repository
        List<Book> books = Arrays.asList(
                new Book(1L, "Book1", 19.99, 100, new Author(1L, "Author1"), new Genre(1L, "Genre1")),
                new Book(2L, "Book2", 24.99, 80, new Author(2L, "Author2"), new Genre(2L, "Genre2"))
        );
        when(bookRepository.findAll()).thenReturn(books);

        // Calling service method
        List<Book> result = bookService.getAllBooks();

        // Assertions
        assertEquals(2, result.size());
        assertEquals("Book1", result.get(0).getTitle());
        assertEquals("Book2", result.get(1).getTitle());

        // Verify repository method is called
        verify(bookRepository, times(1)).findAll();
    }

    @Test
    void testGetBookById() {
        // Mocking repository
        Book book = new Book(1L, "Book1", 19.99, 100, new Author(1L, "Author1"), new Genre(1L, "Genre1"));
        when(bookRepository.findById(1L)).thenReturn(Optional.of(book));

        // Calling service method
        Book result = bookService.getBookById(1L);

        // Assertions
        assertEquals("Book1", result.getTitle());

        // Verify repository method is called
        verify(bookRepository, times(1)).findById(1L);
    }

    @Test
    void testSaveBook() {
        // Mocking repository
        Book bookToSave = new Book(null, "NewBook", 29.99, 50, new Author(2L, "Author2"), new Genre(2L, "Genre2"));
        Book savedBook = new Book(3L, "NewBook", 29.99, 50, new Author(2L, "Author2"), new Genre(2L, "Genre2"));
        when(bookRepository.save(bookToSave)).thenReturn(savedBook);

        // Calling service method
        Book result = bookService.saveBook(bookToSave);

        // Assertions
        assertEquals(3L, result.getId());
        assertEquals("NewBook", result.getTitle());

        // Verify repository method is called
        verify(bookRepository, times(1)).save(bookToSave);
    }

    @Test
    void testDeleteBook() {
        // Calling service method
        bookService.deleteBook(1L);

        // Verify repository method is called
        verify(bookRepository, times(1)).deleteById(1L);
    }

    @Test
    void testSearchBooks() {
        // Mocking repository
        List<Book> searchedBooks = Arrays.asList(
                new Book(1L, "Book1", 19.99, 100, new Author(1L, "Author1"), new Genre(1L, "Genre1"))
        );
        when(bookRepository.findByTitleContainingIgnoreCaseOrAuthorNameContainingIgnoreCaseOrGenreNameContainingIgnoreCase("Book", "Book", "Book"))
                .thenReturn(searchedBooks);

        // Calling service method
        List<Book> result = bookService.searchBooks("Book");

        // Assertions
        assertEquals(1, result.size());
        assertEquals("Book1", result.get(0).getTitle());

        // Verify repository method is called
        verify(bookRepository, times(1))
                .findByTitleContainingIgnoreCaseOrAuthorNameContainingIgnoreCaseOrGenreNameContainingIgnoreCase("Book", "Book", "Book");
    }
}
In this BookServiceTest class, I've added test cases for getting all books, getting a book by ID, saving a book, deleting a book, and searching for books based on a keyword. Adjust these tests based on your actual service logic and repository interactions. Ensure you have the necessary dependencies for testing in your project, such as JUnit 5 and Mockito.

User
cannot find ""findByTitleContainingIgnoreCaseOrAuthorNameContainingIgnoreCaseOrGenreNameContainingIgnoreCase"" method of BookRepository
ChatGPT
I apologize for the confusion. It seems I made an error in the method name. If your BookRepository does not have a method with such a name, you can modify the test to use a more appropriate method for searching. Here's an updated version of the testSearchBooks method:

java
Copy code
import org.junit.jupiter.api.Test;
import org.mockito.InjectMocks;
import org.mockito.Mock;
import org.springframework.boot.test.context.SpringBootTest;

import java.util.Arrays;
import java.util.List;

import static org.junit.jupiter.api.Assertions.assertEquals;
import static org.mockito.Mockito.*;

@SpringBootTest
public class BookServiceTest {

    @Mock
    private BookRepository bookRepository;

    @InjectMocks
    private BookServiceImpl bookService;

    // ... other test methods ...

    @Test
    void testSearchBooks() {
        // Mocking repository
        List<Book> searchedBooks = Arrays.asList(
                new Book(1L, "Book1", 19.99, 100, new Author(1L, "Author1"), new Genre(1L, "Genre1"))
        );
        when(bookRepository.findByTitleContainingIgnoreCaseOrAuthorNameContainingIgnoreCaseOrGenreNameContainingIgnoreCase(anyString(), anyString(), anyString()))
                .thenReturn(searchedBooks);

        // Calling service method
        List<Book> result = bookService.searchBooks("Book");

        // Assertions
        assertEquals(1, result.size());
        assertEquals("Book1", result.get(0).getTitle());

        // Verify repository method is called
        verify(bookRepository, times(1))
                .findByTitleContainingIgnoreCaseOrAuthorNameContainingIgnoreCaseOrGenreNameContainingIgnoreCase(anyString(), anyString(), anyString());
    }
}
In this version, I've used anyString() as arguments for the repository method to make it more generic. Make sure to replace anyString() with the actual search criteria that you want to test.

If you have a specific method for searching in your BookRepository, please replace the placeholder findByTitleContainingIgnoreCaseOrAuthorNameContainingIgnoreCaseOrGenreNameContainingIgnoreCase with the actual method name that corresponds to your search criteria.

User
here repository class : """@Repository
public interface BookRepository extends JpaRepository<Book, Long> {

    List<Book> findByTitleContainingIgnoreCase(String title);

    List<Book> findByAuthorNameContainingIgnoreCase(String authorName);

    List<Book> findByGenreNameContainingIgnoreCase(String genreName);
}""" redesign the test case accordingly
ChatGPT
Certainly! Based on the provided BookRepository, let's update the testSearchBooks method accordingly:

java
Copy code
import org.junit.jupiter.api.Test;
import org.mockito.InjectMocks;
import org.mockito.Mock;
import org.springframework.boot.test.context.SpringBootTest;

import java.util.Arrays;
import java.util.List;

import static org.junit.jupiter.api.Assertions.assertEquals;
import static org.mockito.Mockito.*;

@SpringBootTest
public class BookServiceTest {

    @Mock
    private BookRepository bookRepository;

    @InjectMocks
    private BookServiceImpl bookService;

    // ... other test methods ...

    @Test
    void testSearchBooks() {
        // Mocking repository
        List<Book> searchedBooks = Arrays.asList(
                new Book(1L, "Book1", 19.99, 100, new Author(1L, "Author1"), new Genre(1L, "Genre1"))
        );

        when(bookRepository.findByTitleContainingIgnoreCase(anyString())).thenReturn(searchedBooks);
        when(bookRepository.findByAuthorNameContainingIgnoreCase(anyString())).thenReturn(searchedBooks);
        when(bookRepository.findByGenreNameContainingIgnoreCase(anyString())).thenReturn(searchedBooks);

        // Calling service methods
        List<Book> resultTitle = bookService.searchBooks("Book");
        List<Book> resultAuthor = bookService.searchBooks("Author");
        List<Book> resultGenre = bookService.searchBooks("Genre");

        // Assertions
        assertEquals(1, resultTitle.size());
        assertEquals("Book1", resultTitle.get(0).getTitle());

        assertEquals(1, resultAuthor.size());
        assertEquals("Book1", resultAuthor.get(0).getTitle());

        assertEquals(1, resultGenre.size());
        assertEquals("Book1", resultGenre.get(0).getTitle());

        // Verify repository methods are called
        verify(bookRepository, times(1)).findByTitleContainingIgnoreCase("Book");
        verify(bookRepository, times(1)).findByAuthorNameContainingIgnoreCase("Author");
        verify(bookRepository, times(1)).findByGenreNameContainingIgnoreCase("Genre");
    }
}
In this updated version, I've modified the test to use the specific repository methods (findByTitleContainingIgnoreCase, findByAuthorNameContainingIgnoreCase, and findByGenreNameContainingIgnoreCase). The test now checks if the service methods correctly call these repository methods based on different search criteria.

Make sure to adjust the assertions and method calls in the test based on your specific requirements.

User
i got this error """Wanted but not invoked:
bookRepository.findByAuthorNameContainingIgnoreCase(
    "Author"
);
-> at com.example.onlinebookstore.service.BookServiceTest.testSearchBooks(BookServiceTest.java:122)

However, there were exactly 3 interactions with this mock:
bookRepository.findByTitleContainingIgnoreCase(
    "Book"
);
-> at com.example.onlinebookstore.service.impl.BookServiceImpl.searchBooks(BookServiceImpl.java:39)

bookRepository.findByTitleContainingIgnoreCase(
    "Author"
);
-> at com.example.onlinebookstore.service.impl.BookServiceImpl.searchBooks(BookServiceImpl.java:39)

bookRepository.findByTitleContainingIgnoreCase(
    "Genre"
);
-> at com.example.onlinebookstore.service.impl.BookServiceImpl.searchBooks(BookServiceImpl.java:39)


Wanted but not invoked:
bookRepository.findByAuthorNameContainingIgnoreCase(
    "Author"
);
-> at com.example.onlinebookstore.service.BookServiceTest.testSearchBooks(BookServiceTest.java:122)

However, there were exactly 3 interactions with this mock:
bookRepository.findByTitleContainingIgnoreCase(
    "Book"
);
-> at com.example.onlinebookstore.service.impl.BookServiceImpl.searchBooks(BookServiceImpl.java:39)

bookRepository.findByTitleContainingIgnoreCase(
    "Author"
);
-> at com.example.onlinebookstore.service.impl.BookServiceImpl.searchBooks(BookServiceImpl.java:39)

bookRepository.findByTitleContainingIgnoreCase(
    "Genre"
);
-> at com.example.onlinebookstore.service.impl.BookServiceImpl.searchBooks(BookServiceImpl.java:39)"""  fix the test case accordingly
ChatGPT
It appears that the bookRepository.findByAuthorNameContainingIgnoreCase("Author") method is not being invoked as expected in your test. This could be due to the way the service is implemented or how the test is structured.

Let's modify the testSearchBooks method to ensure that the correct repository method is invoked for each search criterion:

java
Copy code
import org.junit.jupiter.api.Test;
import org.mockito.InjectMocks;
import org.mockito.Mock;
import org.springframework.boot.test.context.SpringBootTest;

import java.util.Arrays;
import java.util.List;

import static org.junit.jupiter.api.Assertions.assertEquals;
import static org.mockito.Mockito.*;

@SpringBootTest
public class BookServiceTest {

    @Mock
    private BookRepository bookRepository;

    @InjectMocks
    private BookServiceImpl bookService;

    // ... other test methods ...

    @Test
    void testSearchBooks() {
        // Mocking repository
        List<Book> searchedBooks = Arrays.asList(
                new Book(1L, "Book1", 19.99, 100, new Author(1L, "Author1"), new Genre(1L, "Genre1"))
        );

        when(bookRepository.findByTitleContainingIgnoreCase(anyString())).thenReturn(searchedBooks);
        when(bookRepository.findByAuthorNameContainingIgnoreCase(anyString())).thenReturn(searchedBooks);
        when(bookRepository.findByGenreNameContainingIgnoreCase(anyString())).thenReturn(searchedBooks);

        // Calling service methods
        List<Book> resultTitle = bookService.searchBooks("Book");
        List<Book> resultAuthor = bookService.searchBooks("Author");
        List<Book> resultGenre = bookService.searchBooks("Genre");

        // Assertions
        assertEquals(1, resultTitle.size());
        assertEquals("Book1", resultTitle.get(0).getTitle());

        assertEquals(1, resultAuthor.size());
        assertEquals("Book1", resultAuthor.get(0).getTitle());

        assertEquals(1, resultGenre.size());
        assertEquals("Book1", resultGenre.get(0).getTitle());

        // Verify repository methods are called
        verify(bookRepository, times(1)).findByTitleContainingIgnoreCase("Book");
        verify(bookRepository, times(1)).findByAuthorNameContainingIgnoreCase("Author");
        verify(bookRepository, times(1)).findByGenreNameContainingIgnoreCase("Genre");

        // Ensure there are no other interactions with the repository
        verifyNoMoreInteractions(bookRepository);
    }
}
In this modified version, I've added verifyNoMoreInteractions(bookRepository) at the end to ensure that there are no unexpected interactions with the repository. If there are any, it will help identify where the extra interactions are occurring. Adjust the test based on your actual service and repository interactions.

User
add quality checks including coverage, complexity, check style for this application in gradle
ChatGPT
To add quality checks, coverage, and checkstyle checks to your Spring application using Gradle, you can use plugins like jacoco for coverage, checkstyle for code style checks, and pmd for static code analysis. Here's how you can configure them in your build.gradle file:

groovy
Copy code
plugins {
    id 'org.springframework.boot' version '2.6.1'
    id 'io.spring.dependency-management' version '1.0.11.RELEASE'
    id 'java'
    id 'jacoco'
    id 'checkstyle'
    id 'pmd'
}

repositories {
    mavenCentral()
}

dependencies {
    implementation 'org.springframework.boot:spring-boot-starter-data-jpa'
    implementation 'org.springframework.boot:spring-boot-starter-web'
    implementation 'com.h2database:h2'
    testImplementation 'org.springframework.boot:spring-boot-starter-test'
    testImplementation 'org.springframework.security:spring-security-test'
}

test {
    useJUnitPlatform()
}

jacoco {
    toolVersion = '0.8.8'
}

checkstyle {
    toolVersion = '9.0'
    configFile = rootProject.file('config/checkstyle/checkstyle.xml')
}

pmd {
    toolVersion = '6.33.0'
    ignoreFailures = true
}

tasks.withType(JavaCompile) {
    options.encoding = 'UTF-8'
}

tasks.withType(Test) {
    useJUnitPlatform()
}

tasks.withType(JavaExec) {
    classpath += sourceSets.main.output + sourceSets.test.output
}

task checkQuality {
    dependsOn 'checkstyleMain', 'checkstyleTest', 'pmdMain', 'pmdTest'
}
In this configuration:

jacoco is used for code coverage.
checkstyle is used for code style checks.
pmd is used for static code analysis.
checkQuality is a custom task that depends on all the quality checks.
Ensure you have a config directory in your project root with a checkstyle directory containing checkstyle.xml for your checkstyle configuration.

For more detailed configurations and customization, you may need to adjust the settings based on your project structure and requirements. Also, you might want to explore additional plugins for specific tasks depending on your needs.